-0.000000 -0.089371
-0.043449 -0.091047
-0.086899 -0.092725
-0.130348 -0.094403
-0.173746 -0.097101
-0.217020 -0.101341
-0.260289 -0.105635
-0.303558 -0.109930
-0.346274 -0.118052
-0.388657 -0.127768
-0.431016 -0.137582
-0.472653 -0.150112
-0.512773 -0.166876
-0.552734 -0.184017
-0.589790 -0.206765
-0.624064 -0.233522
-0.657204 -0.261672
-0.686604 -0.293708
-0.715498 -0.326200
-0.741487 -0.361060
-0.766475 -0.396645
-0.790044 -0.433184
-0.811355 -0.471085
-0.832292 -0.509194
-0.850806 -0.548537
-0.868461 -0.588274
-0.885872 -0.628117
-0.902829 -0.668156
-0.919688 -0.708236
-0.939041 -0.747174
-0.960214 -0.785152
-0.984297 -0.821355
-1.013630 -0.853452
-1.045040 -0.883519
-1.081375 -0.907403
-1.118868 -0.929425
-1.158256 -0.947842
-1.198327 -0.964723
-1.239126 -0.979759
-1.280535 -0.993024
-1.322619 -1.003961
-1.365387 -1.011803
-1.408868 -1.011591
-1.451048 -1.001029
-1.487308 -0.977032
-1.512763 -0.941781
-1.532149 -0.902860
-1.546488 -0.861811
-1.556482 -0.819493
-1.562844 -0.776480
-1.564634 -0.733035
-1.562156 -0.689624
-1.552747 -0.647172
-1.537247 -0.606548
-1.511382 -0.571595
-1.479824 -0.541683
-1.441301 -0.521518
-1.401025 -0.505132
-1.359622 -0.491851
-1.318252 -0.478464
-1.277976 -0.462079
-1.243014 -0.436226
-1.225960 -0.396229
-1.243243 -0.356330
-1.282109 -0.336835
-1.325442 -0.333235
-1.368900 -0.334651
-1.412305 -0.337239
-1.455786 -0.337334
-1.499169 -0.334408
-1.542015 -0.326997
-1.584080 -0.315988
-1.625589 -0.303040
-1.666593 -0.288573
-1.707457 -0.273714
-1.748180 -0.258472
-1.788847 -0.243082
-1.829196 -0.226879
-1.869196 -0.209830
-1.909023 -0.192381
-1.946934 -0.171088
-1.983612 -0.147735
-2.019193 -0.122742
-2.048822 -0.090918
-2.075819 -0.056832
-2.093043 -0.016908
-2.102565 0.025518
-2.100818 0.068965
-2.089284 0.110889
-2.070161 0.149940
-2.044337 0.184922
-2.015920 0.217833
-1.982751 0.245948
-1.948242 0.272402
-1.912216 0.296747
-1.874677 0.318691
-1.836744 0.339945
-1.797974 0.359630
-1.758476 0.377812
-1.718812 0.395629
-1.679041 0.413204
-1.639039 0.430249
-1.598963 0.447118
-1.558916 0.464055
-1.519456 0.482319
-1.480311 0.501247
-1.441213 0.520274
-1.402846 0.540734
-1.365615 0.563195
-1.328797 0.586327
-1.292440 0.610177
-1.257516 0.636081
-1.223267 0.662869
-1.189081 0.689739
-1.155329 0.717151
-1.121804 0.744842
-1.087771 0.771905
-1.051955 0.796559
-1.015230 0.819838
-0.975967 0.838521
-0.934370 0.851183
-0.891278 0.856992
-0.848249 0.850734
-0.807194 0.836410
-0.771805 0.811147
-0.740279 0.781201
-0.713670 0.746811
-0.691882 0.709182
-0.671195 0.670937
-0.652935 0.631475
-0.636670 0.591150
-0.620708 0.550705
-0.604729 0.510266
-0.588739 0.469831
-0.572684 0.429422
-0.554157 0.390085
-0.533526 0.351809
-0.510350 0.315019
-0.482819 0.281364
-0.451946 0.250744
-0.417144 0.224678
-0.379863 0.202300
-0.340306 0.184249
-0.299461 0.169338
-0.257807 0.156862
-0.215547 0.146629
-0.172931 0.137994
-0.129997 0.131114
-0.086830 0.125896
-0.043465 0.122710
0.000000 0.121519
0.043465 0.122710
0.086830 0.125896
0.129997 0.131114
0.172931 0.137994
0.215547 0.146629
0.257807 0.156862
0.299461 0.169338
0.340306 0.184249
0.379863 0.202300
0.417144 0.224678
0.451946 0.250744
0.482819 0.281364
0.510350 0.315019
0.533526 0.351809
0.554157 0.390085
0.572684 0.429422
0.588739 0.469831
0.604729 0.510266
0.620708 0.550705
0.636670 0.591150
0.652935 0.631475
0.671195 0.670937
0.691882 0.709182
0.713670 0.746811
0.740279 0.781201
0.771805 0.811147
0.807194 0.836410
0.848249 0.850734
0.891278 0.856992
0.934370 0.851183
0.975967 0.838521
1.015230 0.819838
1.051955 0.796559
1.087771 0.771905
1.121804 0.744842
1.155329 0.717151
1.189081 0.689739
1.223267 0.662869
1.257516 0.636081
1.292440 0.610177
1.328797 0.586327
1.365615 0.563195
1.402846 0.540734
1.441213 0.520274
1.480311 0.501247
1.519456 0.482319
1.558916 0.464055
1.598963 0.447118
1.639039 0.430249
1.679041 0.413204
1.718812 0.395629
1.758476 0.377812
1.797974 0.359630
1.836744 0.339945
1.874677 0.318691
1.912216 0.296747
1.948242 0.272402
1.982751 0.245948
2.015920 0.217833
2.044337 0.184922
2.070161 0.149940
2.089284 0.110889
2.100818 0.068965
2.102565 0.025518
2.093043 -0.016908
2.075819 -0.056832
2.048822 -0.090918
2.019193 -0.122742
1.983612 -0.147735
1.946934 -0.171088
1.909023 -0.192381
1.869196 -0.209830
1.829196 -0.226879
1.788847 -0.243082
1.748180 -0.258472
1.707457 -0.273714
1.666593 -0.288573
1.625589 -0.303040
1.584080 -0.315988
1.542015 -0.326997
1.499169 -0.334408
1.455786 -0.337334
1.412305 -0.337239
1.368900 -0.334651
1.325442 -0.333235
1.282109 -0.336835
1.243243 -0.356330
1.225960 -0.396229
1.243014 -0.436226
1.277976 -0.462079
1.318252 -0.478464
1.359622 -0.491851
1.401025 -0.505132
1.441301 -0.521518
1.479824 -0.541683
1.511382 -0.571595
1.537247 -0.606548
1.552747 -0.647172
1.562156 -0.689624
1.564634 -0.733035
1.562844 -0.776480
1.556482 -0.819493
1.546488 -0.861811
1.532149 -0.902860
1.512763 -0.941781
1.487308 -0.977032
1.451048 -1.001029
1.408868 -1.011591
1.365387 -1.011803
1.322619 -1.003961
1.280535 -0.993024
1.239126 -0.979759
1.198327 -0.964723
1.158256 -0.947842
1.118868 -0.929425
1.081375 -0.907403
1.045040 -0.883519
1.013630 -0.853452
0.984297 -0.821355
0.960214 -0.785152
0.939041 -0.747174
0.919688 -0.708236
0.902829 -0.668156
0.885872 -0.628117
0.868461 -0.588274
0.850806 -0.548537
0.832292 -0.509194
0.811355 -0.471085
0.790044 -0.433184
0.766475 -0.396645
0.741487 -0.361060
0.715498 -0.326200
0.686604 -0.293708
0.657204 -0.261672
0.624064 -0.233522
0.589790 -0.206765
0.552734 -0.184017
0.512773 -0.166876
0.472653 -0.150112
0.431016 -0.137582
0.388657 -0.127768
0.346274 -0.118052
0.303558 -0.109930
0.260289 -0.105635
0.217020 -0.101341
0.173746 -0.097101
0.130348 -0.094403
0.086899 -0.092725
0.043449 -0.091047
0.000000 -0.089371