0.000000 3.287828
0.342371 3.353533
0.684742 3.419238
1.027113 3.484943
1.369483 3.550647
1.711854 3.616352
2.055040 3.627209
2.398336 3.630678
2.741632 3.634146
3.084928 3.637615
3.421196 3.611019
3.749196 3.517528
4.066462 3.374264
4.379361 3.221660
4.671780 3.036045
4.946855 2.827405
5.189716 2.580994
5.431326 2.333469
5.657592 2.072262
5.871821 1.801926
6.073277 1.522024
6.184980 1.199769
6.251122 0.866307
6.283695 0.525182
6.300000 0.182754
6.293444 -0.157699
6.227515 -0.493701
6.160510 -0.829359
6.047538 -1.148394
5.866084 -1.441102
5.676335 -1.728389
5.475295 -2.008014
5.251138 -2.266427
4.987041 -2.488194
4.722783 -2.709825
4.455194 -2.926657
4.174657 -3.126969
3.881936 -3.314202
3.589215 -3.501436
3.296494 -3.688669
3.003772 -3.875902
2.711051 -4.063135
2.418330 -4.250368
2.120630 -4.429941
1.821664 -4.607565
1.512867 -4.761436
1.203127 -4.913028
0.865470 -4.999763
0.522522 -5.050173
0.174582 -5.062385
-0.174582 -5.062385
-0.522522 -5.050173
-0.865470 -4.999763
-1.203127 -4.913028
-1.512867 -4.761436
-1.821664 -4.607565
-2.120630 -4.429941
-2.418330 -4.250368
-2.711051 -4.063135
-3.003772 -3.875902
-3.296494 -3.688669
-3.589215 -3.501436
-3.881936 -3.314202
-4.174657 -3.126969
-4.455194 -2.926657
-4.722783 -2.709825
-4.987041 -2.488194
-5.251138 -2.266427
-5.475295 -2.008014
-5.676335 -1.728389
-5.866084 -1.441102
-6.047538 -1.148394
-6.160510 -0.829359
-6.227515 -0.493701
-6.293444 -0.157699
-6.300000 0.182754
-6.283695 0.525182
-6.251122 0.866307
-6.184980 1.199769
-6.073277 1.522024
-5.871821 1.801926
-5.657592 2.072262
-5.431326 2.333469
-5.189716 2.580994
-4.946855 2.827405
-4.671780 3.036045
-4.379361 3.221660
-4.066462 3.374264
-3.749196 3.517528
-3.421196 3.611019
-3.084928 3.637615
-2.741632 3.634146
-2.398336 3.630678
-2.055040 3.627209
-1.711854 3.616352
-1.369483 3.550647
-1.027113 3.484943
-0.684742 3.419238
-0.342371 3.353533
0.000000 3.287828