-0.000000 -2.312385
-0.064219 -2.304558
-0.128439 -2.296734
-0.192658 -2.288907
-0.256877 -2.281080
-0.321041 -2.272813
-0.385143 -2.264085
-0.449244 -2.255340
-0.513344 -2.246594
-0.577443 -2.237832
-0.641531 -2.229002
-0.705620 -2.220168
-0.769708 -2.211333
-0.833796 -2.202500
-0.897601 -2.191810
-0.961305 -2.180533
-1.025001 -2.169209
-1.088696 -2.157885
-1.152392 -2.146560
-1.215350 -2.131675
-1.278057 -2.115762
-1.340742 -2.099763
-1.403426 -2.083763
-1.465969 -2.067216
-1.527336 -2.046736
-1.588450 -2.025514
-1.649559 -2.004276
-1.709674 -1.980369
-1.768319 -1.953054
-1.826651 -1.925076
-1.884767 -1.896654
-1.942409 -1.867281
-1.999936 -1.837683
-2.057460 -1.808081
-2.116586 -1.781822
-2.176221 -1.756743
-2.235890 -1.731743
-2.296153 -1.708212
-2.357177 -1.686732
-2.418396 -1.665812
-2.479619 -1.644906
-2.540580 -1.623247
-2.601253 -1.600794
-2.661848 -1.578130
-2.722439 -1.555458
-2.782471 -1.531342
-2.840766 -1.503289
-2.898331 -1.473765
-2.955869 -1.444189
-3.012242 -1.412449
-3.065830 -1.376204
-3.118225 -1.338255
-3.170574 -1.300243
-3.219867 -1.258345
-3.267017 -1.214047
-3.313884 -1.169450
-3.358680 -1.122774
-3.400205 -1.073166
-3.440439 -1.022504
-3.480340 -0.971580
-3.514105 -0.916396
-3.543792 -0.858915
-3.573309 -0.801347
-3.597761 -0.741452
-3.614944 -0.679081
-3.629426 -0.616029
-3.642996 -0.552774
-3.648922 -0.488351
-3.649563 -0.423660
-3.650000 -0.358967
-3.647164 -0.294335
-3.638700 -0.230197
-3.627715 -0.166442
-3.616633 -0.102704
-3.601015 -0.039923
-3.581439 0.021738
-3.561625 0.083324
-3.540440 0.144451
-3.515413 0.204108
-3.487929 0.262674
-3.460341 0.321191
-3.431373 0.379038
-3.397973 0.434443
-3.361462 0.487850
-3.324818 0.541166
-3.288061 0.594404
-3.247021 0.644415
-3.201521 0.690405
-3.155834 0.736210
-3.110147 0.782014
-3.062846 0.826150
-3.012601 0.866902
-2.961044 0.905982
-2.909430 0.944986
-2.857815 0.983990
-2.804909 1.021223
-2.750238 1.055813
-2.695450 1.090216
-2.640660 1.124617
-2.585414 1.158281
-2.529379 1.190613
-2.473166 1.222636
-2.416911 1.254586
-2.360356 1.286000
-2.303378 1.316641
-2.246376 1.347237
-2.189359 1.377805
-2.131676 1.407097
-2.072811 1.433934
-2.013876 1.460619
-1.954942 1.487304
-1.895617 1.513110
-1.835094 1.535964
-1.773724 1.556436
-1.712305 1.576760
-1.650886 1.597082
-1.588867 1.615496
-1.525523 1.628643
-1.461971 1.640745
-1.398409 1.652796
-1.334675 1.663902
-1.270429 1.671502
-1.205944 1.676710
-1.141448 1.681762
-1.076899 1.686101
-1.012222 1.687615
-0.947529 1.687362
-0.882836 1.686930
-0.818176 1.684801
-0.753955 1.676994
-0.689788 1.668747
-0.625761 1.659485
-0.562636 1.645321
-0.500195 1.628393
-0.438178 1.609978
-0.378812 1.584266
-0.322305 1.552766
-0.267618 1.518201
-0.223627 1.470766
-0.182557 1.420780
-0.149606 1.365106
-0.124300 1.305566
-0.101463 1.245036
-0.087526 1.181861
-0.074372 1.118518
-0.062407 1.054940
-0.051692 0.991139
-0.040924 0.927347
-0.029557 0.863660
-0.017943 0.800016
0.000000 0.737860
0.017943 0.800016
0.029557 0.863660
0.040924 0.927347
0.051692 0.991139
0.062407 1.054940
0.074372 1.118518
0.087526 1.181861
0.101463 1.245036
0.124300 1.305566
0.149606 1.365106
0.182557 1.420780
0.223627 1.470766
0.267618 1.518201
0.322305 1.552766
0.378812 1.584266
0.438178 1.609978
0.500195 1.628393
0.562636 1.645321
0.625761 1.659485
0.689788 1.668747
0.753955 1.676994
0.818176 1.684801
0.882836 1.686930
0.947529 1.687362
1.012222 1.687615
1.076899 1.686101
1.141448 1.681762
1.205944 1.676710
1.270429 1.671502
1.334675 1.663902
1.398409 1.652796
1.461971 1.640745
1.525523 1.628643
1.588867 1.615496
1.650886 1.597082
1.712305 1.576760
1.773724 1.556436
1.835094 1.535964
1.895617 1.513110
1.954942 1.487304
2.013876 1.460619
2.072811 1.433934
2.131676 1.407097
2.189359 1.377805
2.246376 1.347237
2.303378 1.316641
2.360356 1.286000
2.416911 1.254586
2.473166 1.222636
2.529379 1.190613
2.585414 1.158281
2.640660 1.124617
2.695450 1.090216
2.750238 1.055813
2.804909 1.021223
2.857815 0.983990
2.909430 0.944986
2.961044 0.905982
3.012601 0.866902
3.062846 0.826150
3.110147 0.782014
3.155834 0.736210
3.201521 0.690405
3.247021 0.644415
3.288061 0.594404
3.324818 0.541166
3.361462 0.487850
3.397973 0.434443
3.431373 0.379038
3.460341 0.321191
3.487929 0.262674
3.515413 0.204108
3.540440 0.144451
3.561625 0.083324
3.581439 0.021738
3.601015 -0.039923
3.616633 -0.102704
3.627715 -0.166442
3.638700 -0.230197
3.647164 -0.294335
3.650000 -0.358967
3.649563 -0.423660
3.648922 -0.488351
3.642996 -0.552774
3.629426 -0.616029
3.614944 -0.679081
3.597761 -0.741452
3.573309 -0.801347
3.543792 -0.858915
3.514105 -0.916396
3.480340 -0.971580
3.440439 -1.022504
3.400205 -1.073166
3.358680 -1.122774
3.313884 -1.169450
3.267017 -1.214047
3.219867 -1.258345
3.170574 -1.300243
3.118225 -1.338255
3.065830 -1.376204
3.012242 -1.412449
2.955869 -1.444189
2.898331 -1.473765
2.840766 -1.503289
2.782471 -1.531342
2.722439 -1.555458
2.661848 -1.578130
2.601253 -1.600794
2.540580 -1.623247
2.479619 -1.644906
2.418396 -1.665812
2.357177 -1.686732
2.296153 -1.708212
2.235890 -1.731743
2.176221 -1.756743
2.116586 -1.781822
2.057460 -1.808081
1.999936 -1.837683
1.942409 -1.867281
1.884767 -1.896654
1.826651 -1.925076
1.768319 -1.953054
1.709674 -1.980369
1.649559 -2.004276
1.588450 -2.025514
1.527336 -2.046736
1.465969 -2.067216
1.403426 -2.083763
1.340742 -2.099763
1.278057 -2.115762
1.215350 -2.131675
1.152392 -2.146560
1.088696 -2.157885
1.025001 -2.169209
0.961305 -2.180533
0.897601 -2.191810
0.833796 -2.202500
0.769708 -2.211333
0.705620 -2.220168
0.641531 -2.229002
0.577443 -2.237832
0.513344 -2.246594
0.449244 -2.255340
0.385143 -2.264085
0.321041 -2.272813
0.256877 -2.281080
0.192658 -2.288907
0.128439 -2.296734
0.064219 -2.304558
-0.000000 -2.312385