0.000000 -2.521282
-0.184923 -2.492082
-0.383385 -2.456585
-0.592923 -2.412021
-0.806462 -2.357774
-1.021846 -2.296000
-1.229231 -2.233231
-1.423077 -2.170769
-1.612615 -2.107385
-1.808615 -2.042769
-2.012308 -1.975692
-2.228308 -1.898154
-2.456308 -1.806462
-2.681846 -1.699692
-2.896615 -1.572615
-3.100923 -1.419077
-3.283692 -1.241846
-3.436615 -1.040615
-3.556923 -0.813846
-3.638769 -0.568923
-3.670462 -0.314154
-3.649846 -0.055385
-3.576923 0.200308
-3.458462 0.444615
-3.295077 0.679692
-3.093846 0.905846
-2.865846 1.120615
-2.620923 1.320000
-2.360308 1.502462
-2.095077 1.660923
-1.832615 1.788923
-1.569231 1.886462
-1.305231 1.954154
-1.049538 1.990154
-0.811385 1.992615
-0.597231 1.964308
-0.417846 1.908923
-0.278154 1.834462
-0.175692 1.751077
-0.100923 1.667692
-0.045231 1.588923
-0.000000 1.515385
0.045231 1.588923
0.100923 1.667692
0.175692 1.751077
0.278154 1.834462
0.417846 1.908923
0.597231 1.964308
0.811385 1.992615
1.049538 1.990154
1.305231 1.954154
1.569231 1.886462
1.832615 1.788923
2.095077 1.660923
2.360308 1.502462
2.620923 1.320000
2.865846 1.120615
3.093846 0.905846
3.295077 0.679692
3.458462 0.444615
3.576923 0.200308
3.649846 -0.055385
3.670462 -0.314154
3.638769 -0.568923
3.556923 -0.813846
3.436615 -1.040615
3.283692 -1.241846
3.100923 -1.419077
2.896615 -1.572615
2.681846 -1.699692
2.456308 -1.806462
2.228308 -1.898154
2.012308 -1.975692
1.808615 -2.042769
1.612615 -2.107385
1.423077 -2.170769
1.229231 -2.233231
1.021846 -2.296000
0.806462 -2.357774
0.592923 -2.412021
0.383385 -2.456585
0.184923 -2.492082
-0.000000 -2.521282
