 4.0842e+00   1.2150e+00   2.3036e+01
-3.8549e-01   2.1579e+00   2.2950e+01
 7.0461e-02   2.0868e+00   2.3153e+01
 1.2241e+00   1.9189e+00   2.3348e+01
 1.9901e+00   1.9993e+00   2.3164e+01
 2.6047e+00   1.9778e+00   2.3164e+01
 4.5773e+00   7.5390e-01   2.2763e+01
 3.6289e+00   1.5868e+00   2.3010e+01
-1.2366e+00   2.1911e+00   2.2932e+01
 3.1236e+00   1.8725e+00   2.3034e+01
 4.8704e+00   1.7865e-01   2.2584e+01
 4.9565e+00   8.0590e-02   2.2253e+01
-2.2315e+00   2.5255e+00   2.2558e+01
-2.7128e+00   2.7016e+00   2.2251e+01
 5.0659e+00  -2.8869e-01   2.1954e+01
 5.0344e+00  -7.3190e-01   2.1657e+01
-3.7206e+00   2.5603e+00   2.1221e+01
-3.2479e+00   2.7342e+00   2.1704e+01
-2.8890e+00   2.9629e+00   2.1652e+01
 4.6981e+00  -1.4557e+00   2.1066e+01
 4.8832e+00  -1.1187e+00   2.1315e+01
-5.1191e+00   1.9290e-01   2.0591e+01
 4.4621e+00  -1.7130e+00   2.0753e+01
-5.1765e+00   7.7710e-01   2.0476e+01
-4.9729e+00   1.1963e+00   2.0719e+01
-4.4277e+00   1.8905e+00   2.0969e+01
-4.1704e+00   2.0794e+00   2.1214e+01
 1.1484e+00  -4.0340e+00   2.0206e+01
 2.1729e+00  -3.6507e+00   2.0256e+01
 2.4974e+00  -3.3906e+00   2.0181e+01
 3.5496e+00  -2.7946e+00   2.0354e+01
-3.7708e+00  -2.0994e+00   2.0392e+01
 4.0663e+00  -2.1936e+00   2.0495e+01
-5.0877e+00  -5.3331e-01   2.0170e+01
-3.2359e-01  -4.4809e+00   2.0146e+01
 1.7166e-01  -4.4959e+00   2.0050e+01
 5.9503e-01  -4.3439e+00   2.0046e+01
-5.3583e-01  -4.3831e+00   1.9979e+01
-9.8023e-01  -4.2307e+00   1.9843e+01
-3.1913e+00  -2.6978e+00   2.0212e+01
-4.3452e+00  -1.5588e+00   2.0291e+01
-4.9146e+00  -1.0620e+00   2.0019e+01
-5.2141e+00  -1.0968e-01   2.0200e+01
-2.9447e+00  -3.0936e+00   1.9894e+01
-2.0069e+00  -3.8954e+00   1.9555e+01
-1.5305e+00  -4.1650e+00   1.9535e+01