 5.2509e+00   1.1815e+00   1.7449e+01
-3.3056e+00   2.9220e+00   1.6935e+01
-2.7843e+00   3.1016e+00   1.6996e+01
-1.2156e+00   3.1775e+00   1.7071e+01
 1.5167e+00   3.2529e+00   1.7219e+01
 2.7218e+00   3.0701e+00   1.6719e+01
 5.4219e+00  -2.1840e-01   1.7107e+01
 5.3975e+00   3.1250e-01   1.7085e+01
 5.3373e+00   8.2450e-01   1.7236e+01
-4.8383e+00   1.2372e+00   1.6956e+01
 4.9833e+00   1.5769e+00   1.7113e+01
-2.1626e+00   2.9313e+00   1.6554e+01
-2.6148e-02   3.0275e+00   1.6927e+01
 3.8917e-01   3.0174e+00   1.6880e+01
 5.2568e+00  -5.9018e-01   1.6730e+01
-4.4317e+00   1.8729e+00   1.6627e+01
 4.6753e+00   1.9267e+00   1.6837e+01
 3.7549e+00   2.7044e+00   1.6705e+01
 4.2458e+00   2.3898e+00   1.6879e+01
 2.1402e+00   3.1139e+00   1.6814e+01
 3.3186e+00   2.9170e+00   1.6682e+01
 5.0508e+00  -1.1513e+00   1.6419e+01
-5.2612e+00  -6.5073e-01   1.6296e+01
-5.2936e+00   1.3520e-02   1.6485e+01
-5.2351e+00   5.5410e-01   1.6457e+01
-3.6601e+00   2.6681e+00   1.6504e+01
 4.7362e+00  -1.5424e+00   1.6102e+01
-5.2218e+00  -8.5562e-01   1.6156e+01
-5.1009e+00   8.4470e-01   1.6647e+01
-4.0064e+00   2.3905e+00   1.6565e+01
 4.1586e+00  -2.1273e+00   1.5667e+01
 2.5160e+00  -3.2197e+00   1.5442e+01
-3.5319e+00  -2.7568e+00   1.5504e+01
 2.8259e+00  -3.0272e+00   1.5478e+01
 3.2824e+00  -2.8653e+00   1.5457e+01
 3.7378e+00  -2.5511e+00   1.5435e+01
-4.9308e+00  -1.6115e+00   1.5401e+01
-5.3001e+00  -1.0366e+00   1.5372e+01
 6.4333e-01  -4.3277e+00   1.4950e+01
 1.2711e+00  -3.9558e+00   1.5148e+01
-1.6042e+00  -3.8234e+00   1.5114e+01
 2.2337e+00  -3.3715e+00   1.5182e+01
-3.0971e+00  -3.0334e+00   1.5315e+01
-3.9090e+00  -2.6033e+00   1.5281e+01
-6.1465e-01  -4.5080e+00   1.4765e+01
-7.7067e-02  -4.4996e+00   1.4894e+01
 2.7051e-01  -4.4711e+00   1.4874e+01
-1.0207e+00  -4.4086e+00   1.4725e+01
-2.4307e+00  -3.4909e+00   1.5052e+01
-4.6434e+00  -2.0603e+00   1.5185e+01