-0.000000 -0.108242
-0.035570 -0.111509
-0.071140 -0.114774
-0.106710 -0.118039
-0.142082 -0.123010
-0.177251 -0.129256
-0.212408 -0.135570
-0.247565 -0.141887
-0.281808 -0.152049
-0.315685 -0.163374
-0.349527 -0.174802
-0.383369 -0.186229
-0.415210 -0.202417
-0.446264 -0.220066
-0.477228 -0.237875
-0.508186 -0.255693
-0.536057 -0.278031
-0.562182 -0.302391
-0.588022 -0.327052
-0.613846 -0.351730
-0.636091 -0.379676
-0.656465 -0.409015
-0.676515 -0.438577
-0.696540 -0.468155
-0.713683 -0.499492
-0.729258 -0.531637
-0.744528 -0.563928
-0.759773 -0.596231
-0.774902 -0.628588
-0.789982 -0.660969
-0.805055 -0.693352
-0.821253 -0.725188
-0.840410 -0.755335
-0.860730 -0.784712
-0.881206 -0.813980
-0.907242 -0.838430
-0.935793 -0.859893
-0.964703 -0.880872
-0.996246 -0.897630
-1.029493 -0.910686
-1.063149 -0.922650
-1.097761 -0.931474
-1.133136 -0.936413
-1.168695 -0.939800
-1.204378 -0.938223
-1.239489 -0.931665
-1.272807 -0.918798
-1.301167 -0.897092
-1.322628 -0.868545
-1.334871 -0.834996
-1.342214 -0.800041
-1.341481 -0.764333
-1.336855 -0.728915
-1.330238 -0.693814
-1.318752 -0.659993
-1.304925 -0.627059
-1.290745 -0.594274
-1.273624 -0.562926
-1.254752 -0.532599
-1.235586 -0.502457
-1.216298 -0.472393
-1.196919 -0.442387
-1.178407 -0.411839
-1.164448 -0.378962
-1.156541 -0.344131
-1.159747 -0.308565
-1.174552 -0.276068
-1.197484 -0.248689
-1.224690 -0.225547
-1.254473 -0.205828
-1.285160 -0.187548
-1.317278 -0.171919
-1.350249 -0.158180
-1.383397 -0.144872
-1.417249 -0.133474
-1.451549 -0.123505
-1.485934 -0.113829
-1.520604 -0.105237
-1.555561 -0.097897
-1.590621 -0.091064
-1.625654 -0.084094
-1.660621 -0.076798
-1.695542 -0.069288
-1.729677 -0.058769
-1.758604 -0.037834
-1.738461 -0.008622
-1.704245 0.001625
-1.668951 0.007127
-1.633550 0.011882
-1.598083 0.016127
-1.562562 0.019888
-1.527048 0.023708
-1.491630 0.028343
-1.456447 0.034508
-1.421339 0.041091
-1.386441 0.048703
-1.352779 0.060650
-1.319554 0.073763
-1.286780 0.087961
-1.257010 0.107699
-1.228405 0.129092
-1.200404 0.151266
-1.176117 0.177458
-1.153736 0.205296
-1.131888 0.233554
-1.112317 0.263435
-1.095059 0.294708
-1.078405 0.326308
-1.062027 0.358051
-1.047121 0.390512
-1.032818 0.423243
-1.018422 0.455933
-1.003223 0.488257
-0.987101 0.520132
-0.970530 0.551775
-0.952118 0.582382
-0.929899 0.610350
-0.905975 0.636874
-0.879326 0.660656
-0.848943 0.679438
-0.817107 0.695627
-0.782341 0.703819
-0.746647 0.705139
-0.711149 0.701205
-0.678655 0.686375
-0.648843 0.666705
-0.625111 0.640011
-0.606256 0.609673
-0.588371 0.578755
-0.573666 0.546202
-0.560762 0.512895
-0.547658 0.479666
-0.532386 0.447376
-0.515390 0.415959
-0.497895 0.384818
-0.477741 0.355328
-0.454002 0.328638
-0.428926 0.303200
-0.402566 0.279096
-0.372879 0.259233
-0.341642 0.241908
-0.310338 0.224706
-0.277772 0.210031
-0.244154 0.197959
-0.210352 0.186414
-0.176150 0.176111
-0.141346 0.168078
-0.106306 0.161142
-0.071085 0.155195
-0.035659 0.150625
0.000000 0.148548
0.035659 0.150625
0.071085 0.155195
0.106306 0.161142
0.141346 0.168078
0.176150 0.176111
0.210352 0.186414
0.244154 0.197959
0.277772 0.210031
0.310338 0.224706
0.341642 0.241908
0.372879 0.259233
0.402566 0.279096
0.428926 0.303200
0.454002 0.328638
0.477741 0.355328
0.497895 0.384818
0.515390 0.415959
0.532386 0.447376
0.547658 0.479666
0.560762 0.512895
0.573666 0.546202
0.588371 0.578755
0.606256 0.609673
0.625111 0.640011
0.648843 0.666705
0.678655 0.686375
0.711149 0.701205
0.746647 0.705139
0.782341 0.703819
0.817107 0.695627
0.848943 0.679438
0.879326 0.660656
0.905975 0.636874
0.929899 0.610350
0.952118 0.582382
0.970530 0.551775
0.987101 0.520132
1.003223 0.488257
1.018422 0.455933
1.032818 0.423243
1.047121 0.390512
1.062027 0.358051
1.078405 0.326308
1.095059 0.294708
1.112317 0.263435
1.131888 0.233554
1.153736 0.205296
1.176117 0.177458
1.200404 0.151266
1.228405 0.129092
1.257010 0.107699
1.286780 0.087961
1.319554 0.073763
1.352779 0.060650
1.386441 0.048703
1.421339 0.041091
1.456447 0.034508
1.491630 0.028343
1.527048 0.023708
1.562562 0.019888
1.598083 0.016127
1.633550 0.011882
1.668951 0.007127
1.704245 0.001625
1.738461 -0.008622
1.758604 -0.037834
1.729677 -0.058769
1.695542 -0.069288
1.660621 -0.076798
1.625654 -0.084094
1.590621 -0.091064
1.555561 -0.097897
1.520604 -0.105237
1.485934 -0.113829
1.451549 -0.123505
1.417249 -0.133474
1.383397 -0.144872
1.350249 -0.158180
1.317278 -0.171919
1.285160 -0.187548
1.254473 -0.205828
1.224690 -0.225547
1.197484 -0.248689
1.174552 -0.276068
1.159747 -0.308565
1.156541 -0.344131
1.164448 -0.378962
1.178407 -0.411839
1.196919 -0.442387
1.216298 -0.472393
1.235586 -0.502457
1.254752 -0.532599
1.273624 -0.562926
1.290745 -0.594274
1.304925 -0.627059
1.318752 -0.659993
1.330238 -0.693814
1.336855 -0.728915
1.341481 -0.764333
1.342214 -0.800041
1.334871 -0.834996
1.322628 -0.868545
1.301167 -0.897092
1.272807 -0.918798
1.239489 -0.931665
1.204378 -0.938223
1.168695 -0.939800
1.133136 -0.936413
1.097761 -0.931474
1.063149 -0.922650
1.029493 -0.910686
0.996246 -0.897630
0.964703 -0.880872
0.935793 -0.859893
0.907242 -0.838430
0.881206 -0.813980
0.860730 -0.784712
0.840410 -0.755335
0.821253 -0.725188
0.805055 -0.693352
0.789982 -0.660969
0.774902 -0.628588
0.759773 -0.596231
0.744528 -0.563928
0.729258 -0.531637
0.713683 -0.499492
0.696540 -0.468155
0.676515 -0.438577
0.656465 -0.409015
0.636091 -0.379676
0.613846 -0.351730
0.588022 -0.327052
0.562182 -0.302391
0.536057 -0.278031
0.508186 -0.255693
0.477228 -0.237875
0.446264 -0.220066
0.415210 -0.202417
0.383369 -0.186229
0.349527 -0.174802
0.315685 -0.163374
0.281808 -0.152049
0.247565 -0.141887
0.212408 -0.135570
0.177251 -0.129256
0.142082 -0.123010
0.106710 -0.118039
0.071140 -0.114774
0.035570 -0.111509
0.000000 -0.108242