-0.000000 -2.086967
-0.056515 -2.084536
-0.112916 -2.080206
-0.169143 -2.074015
-0.225367 -2.067798
-0.281497 -2.060780
-0.337287 -2.051438
-0.393064 -2.042019
-0.448842 -2.032601
-0.504619 -2.023183
-0.559428 -2.009190
-0.614020 -1.994374
-0.668601 -1.979517
-0.723182 -1.964659
-0.777141 -1.947682
-0.830801 -1.929781
-0.884436 -1.911807
-0.938072 -1.893834
-0.992332 -1.877845
-1.046688 -1.862185
-1.101049 -1.846542
-1.155387 -1.830820
-1.209713 -1.815056
-1.264025 -1.799243
-1.317413 -1.780548
-1.370631 -1.761373
-1.424014 -1.742663
-1.477697 -1.724832
-1.531431 -1.707155
-1.585506 -1.690550
-1.639943 -1.675174
-1.694444 -1.660026
-1.748935 -1.644842
-1.803404 -1.629580
-1.857868 -1.614299
-1.912332 -1.599018
-1.966647 -1.583217
-2.020841 -1.567005
-2.075010 -1.550710
-2.129179 -1.534414
-2.183228 -1.517726
-2.236706 -1.499289
-2.290000 -1.480327
-2.343286 -1.461342
-2.396172 -1.441268
-2.446998 -1.416438
-2.497026 -1.390038
-2.547020 -1.363571
-2.595603 -1.334597
-2.642598 -1.303114
-2.689150 -1.270976
-2.735681 -1.238811
-2.781231 -1.205269
-2.824964 -1.169391
-2.868039 -1.132726
-2.911081 -1.096022
-2.952261 -1.057239
-2.989745 -1.014875
-3.025775 -0.971267
-3.061730 -0.927597
-3.094398 -0.881417
-3.124429 -0.833480
-3.153903 -0.785198
-3.183351 -0.736901
-3.210049 -0.687031
-3.234610 -0.636074
-3.258761 -0.584922
-3.282895 -0.533762
-3.302778 -0.480804
-3.317403 -0.426161
-3.330272 -0.371077
-3.343046 -0.315971
-3.350000 -0.259834
-3.347701 -0.203313
-3.341795 -0.147056
-3.335701 -0.090818
-3.326341 -0.035031
-3.309173 0.018868
-3.288271 0.071432
-3.267177 0.123918
-3.245472 0.176155
-3.218688 0.225980
-3.188724 0.273959
-3.158592 0.321832
-3.128406 0.369671
-3.095030 0.415342
-3.059338 0.459228
-3.023518 0.503009
-2.987697 0.546788
-2.949982 0.588947
-2.910458 0.629415
-2.870604 0.669559
-2.830735 0.709687
-2.790347 0.749293
-2.748765 0.787643
-2.706495 0.825234
-2.664183 0.862777
-2.621871 0.900321
-2.578606 0.936762
-2.534087 0.971660
-2.489174 1.006049
-2.444237 1.040407
-2.399300 1.074766
-2.353671 1.108200
-2.306819 1.139897
-2.259385 1.170717
-2.211912 1.201475
-2.164439 1.232235
-2.116965 1.262992
-2.069100 1.293138
-2.020563 1.322189
-1.971747 1.350770
-1.922912 1.379316
-1.874075 1.407861
-1.824772 1.435592
-1.774194 1.460923
-1.722706 1.484350
-1.671145 1.507616
-1.618772 1.528990
-1.564962 1.546436
-1.510597 1.562065
-1.456170 1.577477
-1.401501 1.592007
-1.346509 1.605259
-1.291487 1.618390
-1.236465 1.631521
-1.181343 1.644222
-1.125994 1.655899
-1.070535 1.667039
-1.015066 1.678132
-0.959598 1.689226
-0.903802 1.698536
-0.847472 1.703707
-0.791031 1.707483
-0.734584 1.711150
-0.678048 1.713033
-0.621629 1.708942
-0.565772 1.700010
-0.509992 1.690606
-0.454757 1.678403
-0.401671 1.658867
-0.349579 1.636815
-0.298750 1.611992
-0.252076 1.580033
-0.208074 1.544485
-0.167455 1.505117
-0.131971 1.461063
-0.099147 1.414994
-0.069405 1.366877
-0.039838 1.318652
-0.000000 1.278493
0.039838 1.318652
0.069405 1.366877
0.099147 1.414994
0.131971 1.461063
0.167455 1.505117
0.208074 1.544485
0.252076 1.580033
0.298750 1.611992
0.349579 1.636815
0.401671 1.658867
0.454757 1.678403
0.509992 1.690606
0.565772 1.700010
0.621629 1.708942
0.678048 1.713033
0.734584 1.711150
0.791031 1.707483
0.847472 1.703707
0.903802 1.698536
0.959598 1.689226
1.015066 1.678132
1.070535 1.667039
1.125994 1.655899
1.181343 1.644222
1.236465 1.631521
1.291487 1.618390
1.346509 1.605259
1.401501 1.592007
1.456170 1.577477
1.510597 1.562065
1.564962 1.546436
1.618772 1.528990
1.671145 1.507616
1.722706 1.484350
1.774194 1.460923
1.824772 1.435592
1.874075 1.407861
1.922912 1.379316
1.971747 1.350770
2.020563 1.322189
2.069100 1.293138
2.116965 1.262992
2.164439 1.232235
2.211912 1.201475
2.259385 1.170717
2.306819 1.139897
2.353671 1.108200
2.399300 1.074766
2.444237 1.040407
2.489174 1.006049
2.534087 0.971660
2.578606 0.936762
2.621871 0.900321
2.664183 0.862777
2.706495 0.825234
2.748765 0.787643
2.790347 0.749293
2.830735 0.709687
2.870604 0.669559
2.910458 0.629415
2.949982 0.588947
2.987697 0.546788
3.023518 0.503009
3.059338 0.459228
3.095030 0.415342
3.128406 0.369671
3.158592 0.321832
3.188724 0.273959
3.218688 0.225980
3.245472 0.176155
3.267177 0.123918
3.288271 0.071432
3.309173 0.018868
3.326341 -0.035031
3.335701 -0.090818
3.341795 -0.147056
3.347701 -0.203313
3.350000 -0.259834
3.343046 -0.315971
3.330272 -0.371077
3.317403 -0.426161
3.302778 -0.480804
3.282895 -0.533762
3.258761 -0.584922
3.234610 -0.636074
3.210049 -0.687031
3.183351 -0.736901
3.153903 -0.785198
3.124429 -0.833480
3.094398 -0.881417
3.061730 -0.927597
3.025775 -0.971267
2.989745 -1.014875
2.952261 -1.057239
2.911081 -1.096022
2.868039 -1.132726
2.824964 -1.169391
2.781231 -1.205269
2.735681 -1.238811
2.689150 -1.270976
2.642598 -1.303114
2.595603 -1.334597
2.547020 -1.363571
2.497026 -1.390038
2.446998 -1.416438
2.396172 -1.441268
2.343286 -1.461342
2.290000 -1.480327
2.236706 -1.499289
2.183228 -1.517726
2.129179 -1.534414
2.075010 -1.550710
2.020841 -1.567005
1.966647 -1.583217
1.912332 -1.599018
1.857868 -1.614299
1.803404 -1.629580
1.748935 -1.644842
1.694444 -1.660026
1.639943 -1.675174
1.585506 -1.690550
1.531431 -1.707155
1.477697 -1.724832
1.424014 -1.742663
1.370631 -1.761373
1.317413 -1.780548
1.264025 -1.799243
1.209713 -1.815056
1.155387 -1.830820
1.101049 -1.846542
1.046688 -1.862185
0.992332 -1.877845
0.938072 -1.893834
0.884436 -1.911807
0.830801 -1.929781
0.777141 -1.947682
0.723182 -1.964659
0.668601 -1.979517
0.614020 -1.994374
0.559428 -2.009190
0.504619 -2.023183
0.448842 -2.032601
0.393064 -2.042019
0.337287 -2.051438
0.281497 -2.060780
0.225367 -2.067798
0.169143 -2.074015
0.112916 -2.080206
0.056515 -2.084536
0.000000 -2.086967