-0.000000 -3.464286
-0.019625 -3.460324
-0.039251 -3.456349
-0.058876 -3.452362
-0.078502 -3.448368
-0.098127 -3.444375
-0.117752 -3.440387
-0.137378 -3.436406
-0.157003 -3.432444
-0.176629 -3.428527
-0.196241 -3.424660
-0.215841 -3.420844
-0.235429 -3.417098
-0.255003 -3.413441
-0.274565 -3.409892
-0.294114 -3.406470
-0.313651 -3.403200
-0.333175 -3.400108
-0.352711 -3.397238
-0.372260 -3.394590
-0.391822 -3.392165
-0.411397 -3.389994
-0.430984 -3.388095
-0.450584 -3.386483
-0.470197 -3.385168
-0.489822 -3.384152
-0.509460 -3.383448
-0.529111 -3.383067
-0.548775 -3.382997
-0.568451 -3.383219
-0.588140 -3.383721
-0.607841 -3.384483
-0.627556 -3.385492
-0.647283 -3.386737
-0.667022 -3.388184
-0.686775 -3.389803
-0.706540 -3.391562
-0.726317 -3.393429
-0.746108 -3.395359
-0.765911 -3.397321
-0.785727 -3.399270
-0.805556 -3.401162
-0.825397 -3.402978
-0.845238 -3.404641
-0.865079 -3.406108
-0.884921 -3.407352
-0.904762 -3.408330
-0.924603 -3.408997
-0.944444 -3.409321
-0.964286 -3.409270
-0.984127 -3.408832
-1.003968 -3.407987
-1.023803 -3.406711
-1.043613 -3.405016
-1.063397 -3.402933
-1.083156 -3.400470
-1.102889 -3.397638
-1.122597 -3.394438
-1.142279 -3.390876
-1.161937 -3.386965
-1.181568 -3.382724
-1.201175 -3.378171
-1.220756 -3.373314
-1.240311 -3.368178
-1.259841 -3.362762
-1.279346 -3.357092
-1.298825 -3.351181
-1.318279 -3.345035
-1.337708 -3.338692
-1.357111 -3.332184
-1.376489 -3.325530
-1.395841 -3.318737
-1.415168 -3.311829
-1.434470 -3.304825
-1.453746 -3.297746
-1.472997 -3.290597
-1.492222 -3.283390
-1.511435 -3.276152
-1.530673 -3.268876
-1.549937 -3.261517
-1.569225 -3.254063
-1.588540 -3.246502
-1.607879 -3.238851
-1.627244 -3.231111
-1.646635 -3.223295
-1.666051 -3.215397
-1.685492 -3.207416
-1.704959 -3.199352
-1.724451 -3.191206
-1.743968 -3.182997
-1.763511 -3.174724
-1.783079 -3.166387
-1.802673 -3.157987
-1.822292 -3.149517
-1.841937 -3.140965
-1.861606 -3.132311
-1.881575 -3.123321
-1.901841 -3.114000
-1.922406 -3.104343
-1.943270 -3.094337
-1.964432 -3.083981
-1.985892 -3.073263
-2.007644 -3.062165
-2.029670 -3.050686
-2.051968 -3.038844
-2.074540 -3.026641
-2.097384 -3.014083
-2.120495 -3.001130
-2.143854 -2.987778
-2.167460 -2.974000
-2.191314 -2.959790
-2.215416 -2.945130
-2.239765 -2.930013
-2.264362 -2.914419
-2.289206 -2.898324
-2.314298 -2.881714
-2.339638 -2.864590
-2.365225 -2.846933
-2.391060 -2.828737
-2.417143 -2.810006
-2.443473 -2.790762
-2.469505 -2.771486
-2.495238 -2.752146
-2.520673 -2.732737
-2.545810 -2.713263
-2.570648 -2.693727
-2.595187 -2.674133
-2.619429 -2.654489
-2.643371 -2.634794
-2.667016 -2.615048
-2.690362 -2.595289
-2.713410 -2.575556
-2.736171 -2.555886
-2.758679 -2.536273
-2.780914 -2.516756
-2.802876 -2.497346
-2.824559 -2.478063
-2.845956 -2.458921
-2.867067 -2.439937
-2.887886 -2.421130
-2.908413 -2.402508
-2.928641 -2.384070
-2.948565 -2.365835
-2.968184 -2.347816
-2.987486 -2.330019
-3.006463 -2.312444
-3.025384 -2.294857
-3.044241 -2.277283
-3.063029 -2.259733
-3.081740 -2.242216
-3.100368 -2.224737
-3.118908 -2.207302
-3.137352 -2.189917
-3.155689 -2.172590
-3.173911 -2.155327
-3.192013 -2.138076
-3.209981 -2.120775
-3.227797 -2.103390
-3.245448 -2.085930
-3.262959 -2.068356
-3.280317 -2.050667
-3.297524 -2.032863
-3.314584 -2.014946
-3.331492 -1.996914
-3.348248 -1.978768
-3.364844 -1.960514
-3.381276 -1.942159
-3.397537 -1.923702
-3.413594 -1.905143
-3.429441 -1.886489
-3.445092 -1.867740
-3.460559 -1.848895
-3.475848 -1.829956
-3.490959 -1.810921
-3.505892 -1.791790
-3.520648 -1.772565
-3.535219 -1.753244
-3.549606 -1.733829
-3.563816 -1.714317
-3.577841 -1.694711
-3.591676 -1.675035
-3.605333 -1.655321
-3.618825 -1.635587
-3.632133 -1.615841
-3.645244 -1.596102
-3.658171 -1.576368
-3.670914 -1.556641
-3.683460 -1.536921
-3.695810 -1.517206
-3.707962 -1.497498
-3.719905 -1.477797
-3.731651 -1.458102
-3.743219 -1.438413
-3.754654 -1.418730
-3.765975 -1.399041
-3.777156 -1.379346
-3.788171 -1.359644
-3.799003 -1.339937
-3.809644 -1.320222
-3.820095 -1.300502
-3.830349 -1.280775
-3.840406 -1.261041
-3.850254 -1.241302
-3.859886 -1.221568
-3.869327 -1.201841
-3.878597 -1.182121
-3.887683 -1.162406
-3.896571 -1.142698
-3.905283 -1.122997
-3.913816 -1.103302
-3.922165 -1.083613
-3.930330 -1.063930
-3.938317 -1.044254
-3.946121 -1.024584
-3.953740 -1.004921
-3.961194 -0.985263
-3.968476 -0.965613
-3.975568 -0.945968
-3.982451 -0.926330
-3.989137 -0.906705
-3.995638 -0.887092
-4.001968 -0.867492
-4.008140 -0.847905
-4.014165 -0.828330
-4.020044 -0.808768
-4.025784 -0.789219
-4.031403 -0.769683
-4.036927 -0.750159
-4.042368 -0.730622
-4.047695 -0.711073
-4.052889 -0.691511
-4.057962 -0.671937
-4.062921 -0.652349
-4.067759 -0.632749
-4.072476 -0.613137
-4.077067 -0.593511
-4.081530 -0.573873
-4.085867 -0.554222
-4.090083 -0.534559
-4.094178 -0.514883
-4.098146 -0.495194
-4.101981 -0.475492
-4.105670 -0.455784
-4.109232 -0.436070
-4.112648 -0.416349
-4.115917 -0.396622
-4.119041 -0.376889
-4.122025 -0.357149
-4.124857 -0.337403
-4.127530 -0.317651
-4.130044 -0.297892
-4.132381 -0.278127
-4.134521 -0.258356
-4.136463 -0.238590
-4.138216 -0.218832
-4.139778 -0.199079
-4.141130 -0.179333
-4.142267 -0.159594
-4.143187 -0.139860
-4.143886 -0.120133
-4.144368 -0.100413
-4.144629 -0.080698
-4.144654 -0.060990
-4.144419 -0.041289
-4.143898 -0.021594
-4.143067 -0.001905
-4.141917 0.017778
-4.140476 0.037467
-4.138692 0.057162
-4.136546 0.076863
-4.134025 0.096571
-4.131124 0.116286
-4.127816 0.136006
-4.124095 0.155733
-4.119962 0.175467
-4.115397 0.195206
-4.110394 0.214952
-4.104946 0.234705
-4.099035 0.254463
-4.092679 0.274222
-4.085898 0.293962
-4.078692 0.313651
-4.071054 0.333283
-4.062965 0.352857
-4.054419 0.372375
-4.045397 0.391835
-4.035892 0.411238
-4.025911 0.430578
-4.015486 0.449854
-4.004648 0.469060
-3.993429 0.488190
-3.981841 0.507244
-3.969873 0.526210
-3.957549 0.545079
-3.944883 0.563841
-3.931879 0.582489
-3.918533 0.601016
-3.904863 0.619422
-3.890883 0.637708
-3.876590 0.655873
-3.862013 0.673911
-3.847168 0.691816
-3.832070 0.709556
-3.816724 0.727111
-3.801092 0.744483
-3.785137 0.761702
-3.768876 0.778819
-3.752330 0.795841
-3.735524 0.812756
-3.718476 0.829549
-3.701213 0.846216
-3.683752 0.862743
-3.666108 0.879130
-3.648279 0.895371
-3.630267 0.911467
-3.612070 0.927422
-3.593695 0.943225
-3.575156 0.958876
-3.556463 0.974375
-3.537632 0.989740
-3.518673 1.004971
-3.499606 1.020076
-3.480438 1.035041
-3.461175 1.049854
-3.441829 1.064508
-3.422400 1.079003
-3.402883 1.093346
-3.383283 1.107587
-3.363613 1.121752
-3.343905 1.135848
-3.324190 1.149860
-3.304470 1.163784
-3.284749 1.177619
-3.265029 1.191359
-3.245308 1.205010
-3.225587 1.218565
-3.205867 1.232038
-3.186146 1.245441
-3.166425 1.258775
-3.146705 1.272044
-3.126984 1.285238
-3.107263 1.298368
-3.087543 1.311448
-3.067822 1.324483
-3.048102 1.337460
-3.028381 1.350387
-3.008660 1.363251
-2.988940 1.376070
-2.969219 1.388851
-2.949498 1.401594
-2.929778 1.414305
-2.910063 1.426971
-2.890356 1.439575
-2.870654 1.452102
-2.850959 1.464552
-2.831270 1.476927
-2.811587 1.489200
-2.791898 1.501352
-2.772203 1.513422
-2.752502 1.525422
-2.732794 1.537371
-2.713079 1.549263
-2.693359 1.561079
-2.673632 1.572819
-2.653898 1.584476
-2.634159 1.596063
-2.614413 1.607575
-2.594660 1.618990
-2.574902 1.630311
-2.555137 1.641537
-2.535365 1.652660
-2.515587 1.663695
-2.495803 1.674622
-2.476013 1.685441
-2.456216 1.696152
-2.436413 1.706749
-2.416603 1.717251
-2.396787 1.727644
-2.376965 1.737930
-2.357137 1.748102
-2.337302 1.758146
-2.317467 1.768076
-2.297638 1.777937
-2.277816 1.787714
-2.258000 1.797390
-2.238190 1.806946
-2.218387 1.816387
-2.198590 1.825721
-2.178800 1.834946
-2.159016 1.844070
-2.139238 1.853086
-2.119467 1.861994
-2.099702 1.870800
-2.079943 1.879492
-2.060190 1.888070
-2.040444 1.896527
-2.020705 1.904857
-2.000971 1.913067
-1.981244 1.921156
-1.961524 1.929124
-1.941810 1.936971
-1.922102 1.944673
-1.902400 1.952241
-1.882705 1.959676
-1.863016 1.966971
-1.843333 1.974133
-1.823644 1.981143
-1.803949 1.987943
-1.784248 1.994502
-1.764540 2.000825
-1.744825 2.006921
-1.725105 2.012775
-1.705378 2.018387
-1.685644 2.023759
-1.665905 2.028876
-1.646159 2.033733
-1.626406 2.038330
-1.606648 2.042667
-1.586883 2.046749
-1.567111 2.050571
-1.547333 2.054146
-1.527549 2.057467
-1.507759 2.060533
-1.487962 2.063352
-1.468165 2.065917
-1.448387 2.068229
-1.428629 2.070305
-1.408889 2.072140
-1.389168 2.073733
-1.369467 2.075092
-1.349784 2.076216
-1.330127 2.077117
-1.310495 2.077829
-1.290889 2.078368
-1.271308 2.078743
-1.251752 2.078952
-1.232222 2.079003
-1.212717 2.078895
-1.193238 2.078629
-1.173784 2.078210
-1.154356 2.077651
-1.134952 2.076959
-1.115575 2.076127
-1.096222 2.075156
-1.076895 2.074057
-1.057594 2.072825
-1.038317 2.071467
-1.019067 2.069981
-0.999841 2.068356
-0.980629 2.066603
-0.961390 2.064717
-0.942127 2.062686
-0.922838 2.060502
-0.903524 2.058165
-0.884184 2.055670
-0.864819 2.053010
-0.845429 2.050178
-0.826013 2.047149
-0.806571 2.043917
-0.787105 2.040463
-0.767619 2.036794
-0.748133 2.032889
-0.728654 2.028730
-0.709187 2.024298
-0.689746 2.019575
-0.670343 2.014533
-0.650997 2.009143
-0.631727 2.003397
-0.612559 1.997276
-0.593517 1.990756
-0.574629 1.983816
-0.555917 1.976444
-0.537416 1.968622
-0.519156 1.960343
-0.501168 1.951581
-0.483498 1.942330
-0.466178 1.932584
-0.449232 1.922337
-0.432692 1.911575
-0.416590 1.900298
-0.400952 1.888502
-0.385810 1.876184
-0.371194 1.863365
-0.357137 1.850044
-0.343670 1.836229
-0.330813 1.821892
-0.318559 1.807060
-0.306927 1.791759
-0.295937 1.776013
-0.285594 1.759848
-0.275905 1.743289
-0.266863 1.726368
-0.258463 1.709105
-0.250686 1.691524
-0.243517 1.673651
-0.236959 1.655517
-0.230965 1.637143
-0.225498 1.618552
-0.220521 1.599765
-0.216013 1.580806
-0.211956 1.561695
-0.208311 1.542451
-0.205060 1.523092
-0.202171 1.503638
-0.199613 1.484102
-0.197359 1.464502
-0.195378 1.444851
-0.193638 1.425156
-0.192108 1.405429
-0.190749 1.385683
-0.189537 1.365943
-0.188457 1.346210
-0.187498 1.326483
-0.186654 1.306762
-0.185911 1.287048
-0.185251 1.267340
-0.184654 1.247638
-0.184095 1.227943
-0.183568 1.208254
-0.183048 1.188571
-0.182483 1.168883
-0.181911 1.149187
-0.181333 1.129486
-0.180756 1.109778
-0.180152 1.090063
-0.179486 1.070343
-0.178679 1.050635
-0.177638 1.030971
-0.176343 1.011384
-0.174775 0.991905
-0.172851 0.972565
-0.170483 0.953384
-0.167638 0.934362
-0.164298 0.915498
-0.160470 0.896794
-0.156140 0.878248
-0.151302 0.859860
-0.145924 0.841632
-0.139962 0.823562
-0.133403 0.805651
-0.126235 0.787898
-0.118463 0.770305
-0.110114 0.752870
-0.101194 0.735594
-0.091740 0.718476
-0.081797 0.701524
-0.071352 0.684737
-0.060425 0.668114
-0.049016 0.651657
-0.037162 0.635365
-0.024927 0.619238
-0.012483 0.603238
-0.000000 0.587302
0.012483 0.603238
0.024927 0.619238
0.037162 0.635365
0.049016 0.651657
0.060425 0.668114
0.071352 0.684737
0.081797 0.701524
0.091740 0.718476
0.101194 0.735594
0.110114 0.752870
0.118463 0.770305
0.126235 0.787898
0.133403 0.805651
0.139962 0.823562
0.145924 0.841632
0.151302 0.859860
0.156140 0.878248
0.160470 0.896794
0.164298 0.915498
0.167638 0.934362
0.170483 0.953384
0.172851 0.972565
0.174775 0.991905
0.176343 1.011384
0.177638 1.030971
0.178679 1.050635
0.179486 1.070343
0.180152 1.090063
0.180756 1.109778
0.181333 1.129486
0.181911 1.149187
0.182483 1.168883
0.183048 1.188571
0.183568 1.208254
0.184095 1.227943
0.184654 1.247638
0.185251 1.267340
0.185911 1.287048
0.186654 1.306762
0.187498 1.326483
0.188457 1.346210
0.189537 1.365943
0.190749 1.385683
0.192108 1.405429
0.193638 1.425156
0.195378 1.444851
0.197359 1.464502
0.199613 1.484102
0.202171 1.503638
0.205060 1.523092
0.208311 1.542451
0.211956 1.561695
0.216013 1.580806
0.220521 1.599765
0.225498 1.618552
0.230965 1.637143
0.236959 1.655517
0.243517 1.673651
0.250686 1.691524
0.258463 1.709105
0.266863 1.726368
0.275905 1.743289
0.285594 1.759848
0.295937 1.776013
0.306927 1.791759
0.318559 1.807060
0.330813 1.821892
0.343670 1.836229
0.357137 1.850044
0.371194 1.863365
0.385810 1.876184
0.400952 1.888502
0.416590 1.900298
0.432692 1.911575
0.449232 1.922337
0.466178 1.932584
0.483498 1.942330
0.501168 1.951581
0.519156 1.960343
0.537416 1.968622
0.555917 1.976444
0.574629 1.983816
0.593517 1.990756
0.612559 1.997276
0.631727 2.003397
0.650997 2.009143
0.670343 2.014533
0.689746 2.019575
0.709187 2.024298
0.728654 2.028730
0.748133 2.032889
0.767619 2.036794
0.787105 2.040463
0.806571 2.043917
0.826013 2.047149
0.845429 2.050178
0.864819 2.053010
0.884184 2.055670
0.903524 2.058165
0.922838 2.060502
0.942127 2.062686
0.961390 2.064717
0.980629 2.066603
0.999841 2.068356
1.019067 2.069981
1.038317 2.071467
1.057594 2.072825
1.076895 2.074057
1.096222 2.075156
1.115575 2.076127
1.134952 2.076959
1.154356 2.077651
1.173784 2.078210
1.193238 2.078629
1.212717 2.078895
1.232222 2.079003
1.251752 2.078952
1.271308 2.078743
1.290889 2.078368
1.310495 2.077829
1.330127 2.077117
1.349784 2.076216
1.369467 2.075092
1.389168 2.073733
1.408889 2.072140
1.428629 2.070305
1.448387 2.068229
1.468165 2.065917
1.487962 2.063352
1.507759 2.060533
1.527549 2.057467
1.547333 2.054146
1.567111 2.050571
1.586883 2.046749
1.606648 2.042667
1.626406 2.038330
1.646159 2.033733
1.665905 2.028876
1.685644 2.023759
1.705378 2.018387
1.725105 2.012775
1.744825 2.006921
1.764540 2.000825
1.784248 1.994502
1.803949 1.987943
1.823644 1.981143
1.843333 1.974133
1.863016 1.966971
1.882705 1.959676
1.902400 1.952241
1.922102 1.944673
1.941810 1.936971
1.961524 1.929124
1.981244 1.921156
2.000971 1.913067
2.020705 1.904857
2.040444 1.896527
2.060190 1.888070
2.079943 1.879492
2.099702 1.870800
2.119467 1.861994
2.139238 1.853086
2.159016 1.844070
2.178800 1.834946
2.198590 1.825721
2.218387 1.816387
2.238190 1.806946
2.258000 1.797390
2.277816 1.787714
2.297638 1.777937
2.317467 1.768076
2.337302 1.758146
2.357137 1.748102
2.376965 1.737930
2.396787 1.727644
2.416603 1.717251
2.436413 1.706749
2.456216 1.696152
2.476013 1.685441
2.495803 1.674622
2.515587 1.663695
2.535365 1.652660
2.555137 1.641537
2.574902 1.630311
2.594660 1.618990
2.614413 1.607575
2.634159 1.596063
2.653898 1.584476
2.673632 1.572819
2.693359 1.561079
2.713079 1.549263
2.732794 1.537371
2.752502 1.525422
2.772203 1.513422
2.791898 1.501352
2.811587 1.489200
2.831270 1.476927
2.850959 1.464552
2.870654 1.452102
2.890356 1.439575
2.910063 1.426971
2.929778 1.414305
2.949498 1.401594
2.969219 1.388851
2.988940 1.376070
3.008660 1.363251
3.028381 1.350387
3.048102 1.337460
3.067822 1.324483
3.087543 1.311448
3.107263 1.298368
3.126984 1.285238
3.146705 1.272044
3.166425 1.258775
3.186146 1.245441
3.205867 1.232038
3.225587 1.218565
3.245308 1.205010
3.265029 1.191359
3.284749 1.177619
3.304470 1.163784
3.324190 1.149860
3.343905 1.135848
3.363613 1.121752
3.383283 1.107587
3.402883 1.093346
3.422400 1.079003
3.441829 1.064508
3.461175 1.049854
3.480438 1.035041
3.499606 1.020076
3.518673 1.004971
3.537632 0.989740
3.556463 0.974375
3.575156 0.958876
3.593695 0.943225
3.612070 0.927422
3.630267 0.911467
3.648279 0.895371
3.666108 0.879130
3.683752 0.862743
3.701213 0.846216
3.718476 0.829549
3.735524 0.812756
3.752330 0.795841
3.768876 0.778819
3.785137 0.761702
3.801092 0.744483
3.816724 0.727111
3.832070 0.709556
3.847168 0.691816
3.862013 0.673911
3.876590 0.655873
3.890883 0.637708
3.904863 0.619422
3.918533 0.601016
3.931879 0.582489
3.944883 0.563841
3.957549 0.545079
3.969873 0.526210
3.981841 0.507244
3.993429 0.488190
4.004648 0.469060
4.015486 0.449854
4.025911 0.430578
4.035892 0.411238
4.045397 0.391835
4.054419 0.372375
4.062965 0.352857
4.071054 0.333283
4.078692 0.313651
4.085898 0.293962
4.092679 0.274222
4.099035 0.254463
4.104946 0.234705
4.110394 0.214952
4.115397 0.195206
4.119962 0.175467
4.124095 0.155733
4.127816 0.136006
4.131124 0.116286
4.134025 0.096571
4.136546 0.076863
4.138692 0.057162
4.140476 0.037467
4.141917 0.017778
4.143067 -0.001905
4.143898 -0.021594
4.144419 -0.041289
4.144654 -0.060990
4.144629 -0.080698
4.144368 -0.100413
4.143886 -0.120133
4.143187 -0.139860
4.142267 -0.159594
4.141130 -0.179333
4.139778 -0.199079
4.138216 -0.218832
4.136463 -0.238590
4.134521 -0.258356
4.132381 -0.278127
4.130044 -0.297892
4.127530 -0.317651
4.124857 -0.337403
4.122025 -0.357149
4.119041 -0.376889
4.115917 -0.396622
4.112648 -0.416349
4.109232 -0.436070
4.105670 -0.455784
4.101981 -0.475492
4.098146 -0.495194
4.094178 -0.514883
4.090083 -0.534559
4.085867 -0.554222
4.081530 -0.573873
4.077067 -0.593511
4.072476 -0.613137
4.067759 -0.632749
4.062921 -0.652349
4.057962 -0.671937
4.052889 -0.691511
4.047695 -0.711073
4.042368 -0.730622
4.036927 -0.750159
4.031403 -0.769683
4.025784 -0.789219
4.020044 -0.808768
4.014165 -0.828330
4.008140 -0.847905
4.001968 -0.867492
3.995638 -0.887092
3.989137 -0.906705
3.982451 -0.926330
3.975568 -0.945968
3.968476 -0.965613
3.961194 -0.985263
3.953740 -1.004921
3.946121 -1.024584
3.938317 -1.044254
3.930330 -1.063930
3.922165 -1.083613
3.913816 -1.103302
3.905283 -1.122997
3.896571 -1.142698
3.887683 -1.162406
3.878597 -1.182121
3.869327 -1.201841
3.859886 -1.221568
3.850254 -1.241302
3.840406 -1.261041
3.830349 -1.280775
3.820095 -1.300502
3.809644 -1.320222
3.799003 -1.339937
3.788171 -1.359644
3.777156 -1.379346
3.765975 -1.399041
3.754654 -1.418730
3.743219 -1.438413
3.731651 -1.458102
3.719905 -1.477797
3.707962 -1.497498
3.695810 -1.517206
3.683460 -1.536921
3.670914 -1.556641
3.658171 -1.576368
3.645244 -1.596102
3.632133 -1.615841
3.618825 -1.635587
3.605333 -1.655321
3.591676 -1.675035
3.577841 -1.694711
3.563816 -1.714317
3.549606 -1.733829
3.535219 -1.753244
3.520648 -1.772565
3.505892 -1.791790
3.490959 -1.810921
3.475848 -1.829956
3.460559 -1.848895
3.445092 -1.867740
3.429441 -1.886489
3.413594 -1.905143
3.397537 -1.923702
3.381276 -1.942159
3.364844 -1.960514
3.348248 -1.978768
3.331492 -1.996914
3.314584 -2.014946
3.297524 -2.032863
3.280317 -2.050667
3.262959 -2.068356
3.245448 -2.085930
3.227797 -2.103390
3.209981 -2.120775
3.192013 -2.138076
3.173911 -2.155327
3.155689 -2.172590
3.137352 -2.189917
3.118908 -2.207302
3.100368 -2.224737
3.081740 -2.242216
3.063029 -2.259733
3.044241 -2.277283
3.025384 -2.294857
3.006463 -2.312444
2.987486 -2.330019
2.968184 -2.347816
2.948565 -2.365835
2.928641 -2.384070
2.908413 -2.402508
2.887886 -2.421130
2.867067 -2.439937
2.845956 -2.458921
2.824559 -2.478063
2.802876 -2.497346
2.780914 -2.516756
2.758679 -2.536273
2.736171 -2.555886
2.713410 -2.575556
2.690362 -2.595289
2.667016 -2.615048
2.643371 -2.634794
2.619429 -2.654489
2.595187 -2.674133
2.570648 -2.693727
2.545810 -2.713263
2.520673 -2.732737
2.495238 -2.752146
2.469505 -2.771486
2.443473 -2.790762
2.417143 -2.810006
2.391060 -2.828737
2.365225 -2.846933
2.339638 -2.864590
2.314298 -2.881714
2.289206 -2.898324
2.264362 -2.914419
2.239765 -2.930013
2.215416 -2.945130
2.191314 -2.959790
2.167460 -2.974000
2.143854 -2.987778
2.120495 -3.001130
2.097384 -3.014083
2.074540 -3.026641
2.051968 -3.038844
2.029670 -3.050686
2.007644 -3.062165
1.985892 -3.073263
1.964432 -3.083981
1.943270 -3.094337
1.922406 -3.104343
1.901841 -3.114000
1.881575 -3.123321
1.861606 -3.132311
1.841937 -3.140965
1.822292 -3.149517
1.802673 -3.157987
1.783079 -3.166387
1.763511 -3.174724
1.743968 -3.182997
1.724451 -3.191206
1.704959 -3.199352
1.685492 -3.207416
1.666051 -3.215397
1.646635 -3.223295
1.627244 -3.231111
1.607879 -3.238851
1.588540 -3.246502
1.569225 -3.254063
1.549937 -3.261517
1.530673 -3.268876
1.511435 -3.276152
1.492222 -3.283390
1.472997 -3.290597
1.453746 -3.297746
1.434470 -3.304825
1.415168 -3.311829
1.395841 -3.318737
1.376489 -3.325530
1.357111 -3.332184
1.337708 -3.338692
1.318279 -3.345035
1.298825 -3.351181
1.279346 -3.357092
1.259841 -3.362762
1.240311 -3.368178
1.220756 -3.373314
1.201175 -3.378171
1.181568 -3.382724
1.161937 -3.386965
1.142279 -3.390876
1.122597 -3.394438
1.102889 -3.397638
1.083156 -3.400470
1.063397 -3.402933
1.043613 -3.405016
1.023803 -3.406711
1.003968 -3.407987
0.984127 -3.408832
0.964286 -3.409270
0.944444 -3.409321
0.924603 -3.408997
0.904762 -3.408330
0.884921 -3.407352
0.865079 -3.406108
0.845238 -3.404641
0.825397 -3.402978
0.805556 -3.401162
0.785727 -3.399270
0.765911 -3.397321
0.746108 -3.395359
0.726317 -3.393429
0.706540 -3.391562
0.686775 -3.389803
0.667022 -3.388184
0.647283 -3.386737
0.627556 -3.385492
0.607841 -3.384483
0.588140 -3.383721
0.568451 -3.383219
0.548775 -3.382997
0.529111 -3.383067
0.509460 -3.383448
0.489822 -3.384152
0.470197 -3.385168
0.450584 -3.386483
0.430984 -3.388095
0.411397 -3.389994
0.391822 -3.392165
0.372260 -3.394590
0.352711 -3.397238
0.333175 -3.400108
0.313651 -3.403200
0.294114 -3.406470
0.274565 -3.409892
0.255003 -3.413441
0.235429 -3.417098
0.215841 -3.420844
0.196241 -3.424660
0.176629 -3.428527
0.157003 -3.432444
0.137378 -3.436406
0.117752 -3.440387
0.098127 -3.444375
0.078502 -3.448368
0.058876 -3.452362
0.039251 -3.456349
0.019625 -3.460324
0.000000 -3.464286
